{
  "type": "postgres",
  "host": "localhost",
  "port": 5432,
  "username": "postgres",
  "password": "p0stgr35!",
  "database": "workoutime",
  "entities": [
    "./src/models/*.ts"
  ],
  "migrations": [
    "./src/database/migrations/*.ts"
  ],
  "cli": {
    "migrationsDir": "./src/database/migrations"
  }
}
